@startuml
'https://plantuml.com/class-diagram

class SeedPsdFile {
    year
    network
    station
    location
    channel
    quality
    ..
    file_name
    file_path
    exists
    is_writeable
    is_temporary_network
    date_created
}

class MSEEDFile {
    ..
    day
    date
    ==
    read()
}

class NPZFile {
    ..
    ppsd
    is_dirty
}

SeedPsdFile <|-- MSEEDFile
SeedPsdFile <|-- NPZFile


class MSEEDFilePathFactory {
    factory()
    ..
    from_id()
    from_database()
}

class MSEEDFileFactory {
    factory()
    ..
    from_path()
    from_id()
    from_database()
    from_directory()
}

class NPZFileFactory {
    factory()
    ..
    from_path()
    from_id()
    from_mseed()
    from_mseed_filename()


}

MSEEDFile <-- MSEEDFileFactory
NPZFile <-- NPZFileFactory

@enduml