@startuml
'https://plantuml.com/class-diagram

class SeedPsdWorker {
    settings
    parallel
    n_cores
    ..
    db_engine
    db_session
    client
}

class SeedPsdWorkerData {
}

class SeedPsdWorkerMetadata {
    update()
}

class SeedPsdWorkerPPSD {
    from_database()
    save_to_npz()
}

class SeedPsdWorkerPlot {
    build_plot()
    build_plot_histogram()
    build_plot_spectrogram()
    save()
    render()
}

class SeedPsdWorkerDataMseed {
    update_dirty()
    update_orphan()
    process_nslc()
    process_path()
    process_file()
}

class SeedPsdWorkerDataNPZ {
    process_path()
    process_file()
}

class PPSD {}



class SeedPsdWorkerAMQP {
    factory()
}

class SeedPsdWorkerContent {
    list_epoch()
    list_file()
    list_network()
    list_source()
    list_stream()

}

SeedPsdWorker <|-- SeedPsdWorkerAMQP
SeedPsdWorker <|-- SeedPsdWorkerContent
SeedPsdWorker <|-- SeedPsdWorkerMetadata
SeedPsdWorker <|-- SeedPsdWorkerPlot
SeedPsdWorker <|-- SeedPsdWorkerPPSD
SeedPsdWorker <|-- SeedPsdWorkerData

SeedPsdWorkerData <|-- SeedPsdWorkerDataMseed
SeedPsdWorkerData <|-- SeedPsdWorkerDataNPZ

PPSD <-- SeedPsdWorkerPPSD



@enduml