@startuml
'https://plantuml.com/activity-diagram-beta

start
:SeedPsdWorkerMetadata.update(network, station);

:client.get_inventory(network, station);

repeat

    partition Network {
        :find Network object in database;
        if (network is found in database) then (no)
          :create Network object;
        endif
    }

    if (database schema exists) then (no)
        :create database schema for this network;
    endif

    repeat
        partition Source {
        :find Source object in database;
        if (source is found in database) then (no)
            :create Source object;
        endif

        repeat
            partition Epoch {
            :find Epoch object in database;
            if (epoch is found in database) then (yes)
                if (Epoch.end is changed or
Epoch.instrument is changed) then (yes)
                    :update Epoch object;
                    :invalidate related Stream objects;
                endif

                :save Epoch object;
            else (no)
                :create Epoch object;
            endif
        }
        repeat while (still another channel epoch in inventory?);

        :delete old Epoch objects;

    }
    repeat while (still another station in inventory?);


repeat while (still another network in inventory?);

:save in database;
end


@enduml
