@startuml
'https://plantuml.com/deployment-diagram
frame RabbitMQ {
    entity SEEDPSD_AMQP_SERVER_URL
    cloud SEEDPSD_AMQP_EXCHANGE_NAME
    queue SEEDPSD_AMQP_DATA_QUEUE_NAME
    queue SEEDPSD_AMQP_METADATA_QUEUE_NAME
}

frame SeedPSD {
    component SeedPsdWorkerRabbitmqData
    component SeedPsdWorkerRabbitmqMetadata
}

SEEDPSD_AMQP_SERVER_URL -- SEEDPSD_AMQP_EXCHANGE_NAME
SEEDPSD_AMQP_EXCHANGE_NAME -- SEEDPSD_AMQP_DATA_QUEUE_NAME : SEEDPSD_AMQP_DATA_QUEUE_ROUTING
SEEDPSD_AMQP_EXCHANGE_NAME -- SEEDPSD_AMQP_METADATA_QUEUE_NAME : SEEDPSD_AMQP_METADATA_QUEUE_ROUTING

SEEDPSD_AMQP_DATA_QUEUE_NAME -0)- SeedPsdWorkerRabbitmqData
SEEDPSD_AMQP_METADATA_QUEUE_NAME -0)- SeedPsdWorkerRabbitmqMetadata
@enduml
